R-数据处理基础-dplyr | Dean's blog
…
> jan1 <- filter(flights, month == 1, day == 1)

# A tibble: 842 x 19
    year month   day dep_time sched_dep_time dep_delay arr_time sched_arr_time arr_delay
   <int> <int> <int>    <int>          <int>     <dbl>    <int>          <int>     <dbl>
 1  2013     1     1      517            515         2      830            819        11
 2  2013     1     1      533            529         4      850            830        20
 3  2013     1     1      542            540         2      923            850        33
 4  2013     1     1      544            545        -1     1004           1022       -18
 5  2013     1     1      554            600        -6      812            837       -25
 6  2013     1     1      554            558        -4      740            728        12
 7  2013     1     1      555            600        -5      913            854        19
 8  2013     1     1      557            600        -3      709            723       -14
 9  2013     1     1      557            600        -3      838            846        -8
10  2013     1     1      558            600        -2      753            745         8
# ... with 832 more rows, and 10 more variables: carrier <chr>, flight <int>,
#   tailnum <chr>, origin <chr>, dest <chr>, air_time <dbl>, distance <dbl>, hour <dbl>,
#   minute <dbl>, time_hour <dttm>
…
#如果有多个排序的列，则后面的列在前面排序的基础上继续排序

> arrange(flights, year, month, day)

# A tibble: 336,776 x 19
    year month   day dep_time sched_dep_time dep_delay arr_time sched_arr_time arr_delay
   <int> <int> <int>    <int>          <int>     <dbl>    <int>          <int>     <dbl>
 1  2013     1     1      517            515         2      830            819        11
 2  2013     1     1      533            529         4      850            830        20
 3  2013     1     1      542            540         2      923            850        33
 4  2013     1     1      544            545        -1     1004           1022       -18
 5  2013     1     1      554            600        -6      812            837       -25
 6  2013     1     1      554            558        -4      740            728        12
 7  2013     1     1      555            600        -5      913            854        19
 8  2013     1     1      557            600        -3      709            723       -14
 9  2013     1     1      557            600        -3      838            846        -8
10  2013     1     1      558            600        -2      753            745         8
# ... with 336,766 more rows, and 10 more variables: carrier <chr>, flight <int>,
#   tailnum <chr>, origin <chr>, dest <chr>, air_time <dbl>, distance <dbl>, hour <dbl>,
#   minute <dbl>, time_hour <dttm>
…
> arrange(flights, desc(day))

# A tibble: 336,776 x 19
    year month   day dep_time sched_dep_time dep_delay arr_time sched_arr_time arr_delay
   <int> <int> <int>    <int>          <int>     <dbl>    <int>          <int>     <dbl>
 1  2013     1    31        1           2100       181      124           2225       179
 2  2013     1    31        4           2359         5      455            444        11
 3  2013     1    31        7           2359         8      453            437        16
 4  2013     1    31       12           2250        82      132              7        85
 5  2013     1    31       26           2154       152      328             50       158
 6  2013     1    31       34           2159       155      135           2315       140
 7  2013     1    31       37           2249       108      132           2357        95
 8  2013     1    31       54           2250       124      152           2359       113
 9  2013     1    31      453            500        -7      651            648         3
10  2013     1    31      522            525        -3      820            820         0
# ... with 336,766 more rows, and 10 more variables: carrier <chr>, flight <int>,
#   tailnum <chr>, origin <chr>, dest <chr>, air_time <dbl>, distance <dbl>, hour <dbl>,
#   minute <dbl>, time_hour <dttm>
…
> select(flights, year, month, day)

# A tibble: 336,776 x 3
    year month   day
   <int> <int> <int>
 1  2013     1     1
 2  2013     1     1
 3  2013     1     1
 4  2013     1     1
 5  2013     1     1
 6  2013     1     1
 7  2013     1     1
 8  2013     1     1
 9  2013     1     1
10  2013     1     1
# ... with 336,766 more rows
…
> flights %>% select(starts_with('a'))
# A tibble: 336,776 x 3
   arr_time arr_delay air_time
      <int>     <dbl>    <dbl>
 1      830        11      227
 2      850        20      227
 3      923        33      160
 4     1004       -18      183
 5      812       -25      116
 6      740        12      150
 7      913        19      158
 8      709       -14       53
 9      838        -8      140
10      753         8      138
# ... with 336,766 more rows
…
> flights %>% select(ends_with('y'))
# A tibble: 336,776 x 3
     day dep_delay arr_delay
   <int>     <dbl>     <dbl>
 1     1         2        11
 2     1         4        20
 3     1         2        33
 4     1        -1       -18
 5     1        -6       -25
 6     1        -4        12
 7     1        -5        19
 8     1        -3       -14
 9     1        -3        -8
10     1        -2         8
# ... with 336,766 more rows

contains("m") ：挑选列名包含“m”的列

1
2
3
4
5
6
7
8

> flights %>% select(contains('m')) %>% print(n=3)
# A tibble: 336,776 x 9
  month dep_time sched_dep_time arr_time sched_arr_time tailnum air_time minute time_hour          
  <int>    <int>          <int>    <int>          <int> <chr>      <dbl>  <dbl> <dttm>             
1     1      517            515      830            819 N14228       227     15 2013-01-01 05:00:00
2     1      533            529      850            830 N24211       227     29 2013-01-01 05:00:00
3     1      542            540      923            850 N619AA       160     40 2013-01-01 05:00:00
# ... with 336,773 more rows

matches(): 使用正则表达式进行列名匹配，返回匹配的列. 以下例子返回列名以”a”起始或”r”结尾的列

1
2
3
4
5
6
7
8

> flights %>% select(matches('^a|r$')) %>% print(n=3)
# A tibble: 336,776 x 7
   year arr_time arr_delay carrier air_time  hour time_hour          
  <int>    <int>     <dbl> <chr>      <dbl> <dbl> <dttm>             
1  2013      830        11 UA           227     5 2013-01-01 05:00:00
2  2013      850        20 UA           227     5 2013-01-01 05:00:00
3  2013      923        33 AA           160     5 2013-01-01 05:00:00
# ... with 336,773 more rows

everything()：所有的列，但不会重复已经指明的列。可以将某些列排到较前的位置

1
2
3
4
5
6
7
8
9

> flights %>% select(hour, minute, everything()) %>% print(n=3)
# A tibble: 336,776 x 19
   hour minute  year month   day dep_time sched_dep_time dep_delay arr_time sched_arr_time
  <dbl>  <dbl> <int> <int> <int>    <int>          <int>     <dbl>    <int>          <int>
1     5     15  2013     1     1      517            515         2      830            819
2     5     29  2013     1     1      533            529         4      850            830
3     5     40  2013     1     1      542            540         2      923            850
# ... with 336,773 more rows, and 9 more variables: arr_delay <dbl>, carrier <chr>, flight <int>,
#   tailnum <chr>, origin <chr>, dest <chr>, air_time <dbl>, distance <dbl>, time_hour <dttm>
…
# A tibble: 6 x 2
  dep_delay arr_delay
      <dbl>     <dbl>
1         2        11
2         4        20
3         2        33
4        -1       -18
5        -6       -25
6        -4        12

#使用mutate函数创建新变量
> cop <- mutate(cop, x3 = dep_delay + arr_delay)

# A tibble: 336,776 x 3
   dep_delay arr_delay    x3
       <dbl>     <dbl> <dbl>
 1         2        11    13
 2         4        20    24
 3         2        33    35
 4        -1       -18   -19
 5        -6       -25   -31
 6        -4        12     8
 7        -5        19    14
 8        -3       -14   -17
 9        -3        -8   -11
10        -2         8     6
# ... with 336,766 more rows
…
对于管道符%>%最直白的解释就是它会将左边的东西传递到右边，例如我将变量flights传递到print()函数进行打印

1
2
3
4
5
6
7
8

> flights %>% print(n=2)
# A tibble: 336,776 x 19
   year month   day dep_time sched_dep_time dep_delay arr_time sched_arr_time arr_delay carrier
  <int> <int> <int>    <int>          <int>     <dbl>    <int>          <int>     <dbl> <chr>  
1  2013     1     1      517            515         2      830            819        11 UA     
2  2013     1     1      533            529         4      850            830        20 UA     
# ... with 336,774 more rows, and 9 more variables: flight <int>, tailnum <chr>, origin <chr>,
#   dest <chr>, air_time <dbl>, distance <dbl>, hour <dbl>, minute <dbl>, time_hour <dttm>
…
flights %>% 
  select(year, month, day, distance, dep_delay, arr_delay) %>% 
  filter(distance < 1500) %>% 
  arrange(desc(dep_delay), desc(arr_delay)) %>% 
  mutate(delay=1:nrow(.))
# A tibble: 264,063 x 7
    year month   day distance dep_delay arr_delay delay
   <int> <int> <int>    <dbl>     <dbl>     <dbl> <int>
 1  2013     6    15      483      1137      1127     1
 2  2013     1    10      719      1126      1109     2
 3  2013     7    22      589      1005       989     3
 4  2013     4    10     1005       960       931     4
 5  2013     3    17     1020       911       915     5
 6  2013     7    22      762       898       895     6
 7  2013    12     5     1085       896       878     7
 8  2013     5     3      719       878       875     8
 9  2013     1     1      184       853       851     9
10  2013    12    17     1085       845       846    10
# ... with 264,053 more rows
…
